#include <sstream>
#include <vector>
#include <iostream>
using namespace std;

vector<int> parseInts(string str) {
    stringstream ss(str);
    vector<int> result;
    char ch;
    int tmp;
    while(ss >> tmp) {
        result.push_back(tmp); //add that number to the vector
        ss >> ch;
    }
    return result;
}

int main() {
    string str;
    cin >> str;
    vector<int> integers = parseInts(str);
    for(int i = 0; i < integers.size(); i++)
        cout << integers[i] << "\n";    
    
    return 0;
}